HDL/HDL_1_synchronous_counter/HDL_1.sim/sim_1/behav/xsim/simulate.log
Time resolution is 1 ps
                   0 clk=0 rst=1 count=xxxx
                   5 clk=1 rst=1 count=0000
                  10 clk=0 rst=0 count=0000
                  15 clk=1 rst=0 count=0001
                  20 clk=0 rst=0 count=0001
                  25 clk=1 rst=0 count=0010
                  30 clk=0 rst=0 count=0010
                  35 clk=1 rst=0 count=0011
                  40 clk=0 rst=0 count=0011
                  45 clk=1 rst=0 count=0100
                  50 clk=0 rst=0 count=0100
                  55 clk=1 rst=0 count=0101
                  60 clk=0 rst=0 count=0101
                  65 clk=1 rst=0 count=0110
                  70 clk=0 rst=0 count=0110
                  75 clk=1 rst=0 count=0111
                  80 clk=0 rst=0 count=0111
                  85 clk=1 rst=0 count=1000
                  90 clk=0 rst=0 count=1000
                  95 clk=1 rst=0 count=1001
                 100 clk=0 rst=0 count=1001
                 105 clk=1 rst=0 count=1010
                 110 clk=0 rst=1 count=1010
                 115 clk=1 rst=1 count=0000
                 120 clk=0 rst=0 count=0000
                 125 clk=1 rst=0 count=0001
                 130 clk=0 rst=0 count=0001
                 135 clk=1 rst=0 count=0010
                 140 clk=0 rst=0 count=0010
                 145 clk=1 rst=0 count=0011
                 150 clk=0 rst=0 count=0011
                 155 clk=1 rst=0 count=0100
                 160 clk=0 rst=0 count=0100
                 165 clk=1 rst=0 count=0101
                 170 clk=0 rst=0 count=0101
                 175 clk=1 rst=0 count=0110
                 180 clk=0 rst=0 count=0110
                 185 clk=1 rst=0 count=0111
                 190 clk=0 rst=0 count=0111
                 195 clk=1 rst=0 count=1000
                 200 clk=0 rst=0 count=1000
                 205 clk=1 rst=0 count=1001
                 210 clk=0 rst=0 count=1001
                 215 clk=1 rst=0 count=1010
$stop called at time : 220 ns : File "F:/Repository/HDL_1/HDL_1.srcs/sim_1/new/tb.v" Line 19
